module obgpd_exporter

go 1.17

require (
	github.com/beorn7/perks v1.0.1 // indirect
	github.com/cespare/xxhash/v2 v2.1.1 // indirect
	github.com/go-kit/log v0.2.0 // indirect
	github.com/go-logfmt/logfmt v0.5.1 // indirect
	github.com/golang/protobuf v1.4.3 // indirect
	github.com/matttproud/golang_protobuf_extensions v1.0.1 // indirect
	github.com/pkg/errors v0.9.1 // indirect
	github.com/prometheus/client_golang v1.11.0 // indirect
	github.com/prometheus/client_model v0.2.0 // indirect
	github.com/prometheus/common v0.32.1 // indirect
	github.com/prometheus/procfs v0.6.0 // indirect
	go4.org/intern v0.0.0-20211027215823-ae77deb06f29 // indirect
	go4.org/unsafe/assume-no-moving-gc v0.0.0-20211027215541-db492cf91b37 // indirect
	golang.org/x/sys v0.0.0-20210603081109-ebe580a85c40 // indirect
	google.golang.org/protobuf v1.26.0-rc.1 // indirect
	inet.af/netaddr v0.0.0-20211027220019-c74959edd3b6 // indirect
)
